data/transients_measurements/se_transient.csv

X,CH1,CH2,CH3,CH4,Start,Increment,
Sequence,Volt,Volt,Volt,Volt,-1.20000e-03,2.00000e-06
0,-4.40000e-02,1.02000e+01,5.20000e-01,5.40000e-02,
1,-6.20000e-02,1.00000e+01,5.28000e-01,4.00000e-02,
2,-4.40000e-02,1.02000e+01,5.20000e-01,5.40000e-02,
3,-6.40000e-02,1.00000e+01,5.36000e-01,4.20000e-02,
4,-6.00000e-02,1.02000e+01,5.20000e-01,5.40000e-02,
5,-4.40000e-02,1.00000e+01,5.28000e-01,4.20000e-02,
6,-6.20000e-02,1.02000e+01,5.20000e-01,4.20000e-02,
7,-4.40000e-02,1.00000e+01,5.28000e-01,5.40000e-02,
8,-4.40000e-02,1.00000e+01,5.28000e-01,5.40000e-02,
9,-6.20000e-02,1.02000e+01,5.20000e-01,4.20000e-02,
10,-4.40000e-02,1.02000e+01,5.20000e-01,4.20000e-02,
11,-6.20000e-02,1.00000e+01,5.28000e-01,5.40000e-02,
12,-4.40000e-02,1.00000e+01,5.20000e-01,4.20000e-02,
13,-6.40000e-02,1.02000e+01,5.28000e-01,5.20000e-02,
14,-6.40000e-02,1.02000e+01,5.20000e-01,5.20000e-02,
15,-4.40000e-02,1.00000e+01,5.28000e-01,4.00000e-02,
16,-6.60000e-02,1.02000e+01,5.20000e-01,4.00000e-02,
17,-4.40000e-02,1.00000e+01,5.36000e-01,5.20000e-02,
18,-4.40000e-02,1.02000e+01,5.28000e-01,5.20000e-02,
19,-6.40000e-02,1.00000e+01,5.12000e-01,4.00000e-02,
20,-6.60000e-02,1.02000e+01,5.04000e-01,4.00000e-02,
21,-4.60000e-02,1.00000e+01,5.28000e-01,5.20000e-02,
22,-4.40000e-02,1.00000e+01,5.20000e-01,4.20000e-02,
23,-6.20000e-02,1.02000e+01,5.28000e-01,5.40000e-02,
24,-4.40000e-02,1.02000e+01,5.20000e-01,4.20000e-02,
25,-6.40000e-02,1.00000e+01,5.28000e-01,5.40000e-02,
26,-4.40000e-02,1.00000e+01,5.20000e-01,5.20000e-02,
27,-6.20000e-02,1.02000e+01,5.28000e-01,4.00000e-02,
28,-6.20000e-02,1.02000e+01,5.20000e-01,4.20000e-02,
29,-4.40000e-02,1.00000e+01,5.28000e-01,5.40000e-02,
30,-4.40000e-02,1.02000e+01,5.20000e-01,4.20000e-02,
31,-6.20000e-02,1.00000e+01,5.28000e-01,5.40000e-02,
32,-4.40000e-02,1.02000e+01,5.20000e-01,4.20000e-02,
33,-6.40000e-02,1.00000e+01,5.36000e-01,5.40000e-02,
34,-4.40000e-02,1.00000e+01,5.28000e-01,5.20000e-02,
35,-6.40000e-02,1.02000e+01,5.12000e-01,4.00000e-02,
36,-4.60000e-02,1.02000e+01,5.20000e-01,4.20000e-02,
37,-6.40000e-02,1.00000e+01,5.28000e-01,5.40000e-02,
38,-6.40000e-02,1.02000e+01,5.20000e-01,4.20000e-02,
39,-4.40000e-02,1.00000e+01,5.28000e-01,5.40000e-02,
40,-6.20000e-02,1.02000e+01,5.28000e-01,4.20000e-02,
41,-4.40000e-02,1.00000e+01,5.12000e-01,5.40000e-02,
42,-4.40000e-02,1.02000e+01,5.20000e-01,4.00000e-02,
43,-6.40000e-02,1.00000e+01,5.28000e-01,5.40000e-02,
44,-4.40000e-02,1.02000e+01,5.28000e-01,5.20000e-02,
45,-6.20000e-02,1.00000e+01,5.04000e-01,4.20000e-02,
46,-6.20000e-02,1.00000e+01,5.28000e-01,4.20000e-02,
47,-4.40000e-02,1.02000e+01,5.12000e-01,5.40000e-02,
48,-4.40000e-02,1.02000e+01,5.20000e-01,5.40000e-02,
49,-6.40000e-02,1.00000e+01,5.28000e-01,4.20000e-02,
50,-6.20000e-02,1.02000e+01,5.20000e-01,4.20000e-02,
51,-4.40000e-02,1.00000e+01,5.28000e-01,5.40000e-02,
52,-6.20000e-02,1.02000e+01,5.20000e-01,5.40000e-02,
53,-4.40000e-02,1.00000e+01,5.28000e-01,4.00000e-02,
54,-4.40000e-02,1.02000e+01,5.28000e-01,4.00000e-02,
55,-6.40000e-02,1.00000e+01,5.12000e-01,5.40000e-02,
56,-4.40000e-02,1.02000e+01,5.28000e-01,5.20000e-02,
57,-6.40000e-02,1.00000e+01,5.12000e-01,4.00000e-02,
58,-6.40000e-02,1.02000e+01,5.28000e-01,4.00000e-02,
59,-4.60000e-02,1.00000e+01,5.12000e-01,5.20000e-02,
60,-6.40000e-02,1.02000e+01,5.28000e-01,4.00000e-02,
61,-4.40000e-02,1.00000e+01,5.04000e-01,5.20000e-02,
62,-4.40000e-02,1.02000e+01,5.28000e-01,4.00000e-02,
63,-6.40000e-02,1.00000e+01,5.04000e-01,5.40000e-02,
64,-4.60000e-02,1.02000e+01,5.28000e-01,5.20000e-02,
65,-6.40000e-02,1.00000e+01,5.20000e-01,4.00000e-02,
66,-4.40000e-02,1.02000e+01,5.20000e-01,4.20000e-02,
67,-6.40000e-02,1.00000e+01,5.28000e-01,5.20000e-02,
68,-6.40000e-02,1.00000e+01,5.20000e-01,4.00000e-02,
69,-4.40000e-02,1.02000e+01,5.28000e-01,5.40000e-02,
70,-4.40000e-02,1.02000e+01,5.28000e-01,4.20000e-02,
71,-6.20000e-02,1.00000e+01,5.04000e-01,5.40000e-02,
72,-6.40000e-02,1.00000e+01,5.28000e-01,4.00000e-02,
73,-4.40000e-02,1.02000e+01,5.04000e-01,5.20000e-02,
74,-4.40000e-02,1.02000e+01,5.20000e-01,5.40000e-02,
75,-6.40000e-02,1.00000e+01,5.28000e-01,4.20000e-02,
76,-6.20000e-02,1.00000e+01,5.28000e-01,4.20000e-02,
77,-4.40000e-02,1.02000e+01,5.04000e-01,5.40000e-02,
78,-4.40000e-02,1.02000e+01,5.20000e-01,5.40000e-02,
79,-6.40000e-02,1.00000e+01,5.28000e-01,4.20000e-02,
80,-6.20000e-02,1.02000e+01,5.20000e-01,4.20000e-02,
81,-4.40000e-02,1.00000e+01,5.28000e-01,5.40000e-02,
82,-4.40000e-02,1.00000e+01,5.20000e-01,4.20000e-02,
83,-6.20000e-02,1.02000e+01,5.28000e-01,5.40000e-02,
84,-6.20000e-02,1.00000e+01,5.20000e-01,4.20000e-02,
85,-4.40000e-02,1.02000e+01,5.36000e-01,5.40000e-02,
86,-4.40000e-02,1.02000e+01,5.20000e-01,5.20000e-02,
87,-6.20000e-02,1.00000e+01,5.28000e-01,4.00000e-02,
88,-6.20000e-02,1.02000e+01,5.20000e-01,4.20000e-02,
89,-4.40000e-02,1.00000e+01,5.28000e-01,5.40000e-02,
90,-6.40000e-02,1.02000e+01,5.20000e-01,4.20000e-02,
91,-4.40000e-02,1.00000e+01,5.28000e-01,5.40000e-02,
92,-4.40000e-02,1.02000e+01,5.28000e-01,5.40000e-02,
93,-6.40000e-02,1.00000e+01,5.04000e-01,4.20000e-02,
94,-4.40000e-02,1.02000e+01,5.20000e-01,5.20000e-02,
95,-6.20000e-02,1.00000e+01,5.28000e-01,4.00000e-02,
96,-4.40000e-02,1.02000e+01,5.20000e-01,4.20000e-02,
97,-6.20000e-02,1.00000e+01,5.28000e-01,5.40000e-02,
98,-4.40000e-02,1.00000e+01,5.20000e-01,4.20000e-02,
99,-6.40000e-02,1.02000e+01,5.28000e-01,5.40000e-02,
100,6.20000e-02,1.02000e+01,5.28000e-01,-4.20000e-02,
101,4.00000e-02,-1.20000e+00,-6.40000e-02,-6.40000e-02,
102,5.80000e-02,-1.00000e+00,-6.40000e-02,-6.00000e-02,
103,4.20000e-02,-6.40000e+00,-3.60000e-01,-5.00000e-02,
104,5.80000e-02,-6.40000e+00,-3.52000e-01,-6.00000e-02,
105,4.00000e-02,-8.80000e+00,-4.80000e-01,-5.00000e-02,
106,4.20000e-02,-8.60000e+00,-4.64000e-01,-6.00000e-02,
107,6.00000e-02,-9.60000e+00,-5.12000e-01,-5.00000e-02,
108,4.20000e-02,-9.40000e+00,-5.04000e-01,-6.00000e-02,
109,6.00000e-02,-1.00000e+01,-5.36000e-01,-5.00000e-02,
110,5.80000e-02,-9.60000e+00,-5.36000e-01,-5.00000e-02,
111,4.00000e-02,-1.00000e+01,-5.20000e-01,-6.20000e-02,
112,5.80000e-02,-9.80000e+00,-5.36000e-01,-5.00000e-02,
113,4.20000e-02,-1.04000e+01,-5.28000e-01,-6.00000e-02,
114,4.00000e-02,-1.04000e+01,-5.28000e-01,-6.00000e-02,
115,6.00000e-02,-9.80000e+00,-5.52000e-01,-5.00000e-02,
116,6.00000e-02,-1.04000e+01,-5.36000e-01,-5.00000e-02,
117,4.00000e-02,-9.80000e+00,-5.28000e-01,-6.20000e-02,
118,5.80000e-02,-9.80000e+00,-5.36000e-01,-6.00000e-02,
119,3.80000e-02,-1.04000e+01,-5.28000e-01,-5.00000e-02,
120,6.00000e-02,-9.80000e+00,-5.36000e-01,-6.00000e-02,
121,4.00000e-02,-1.04000e+01,-5.28000e-01,-5.00000e-02,
122,4.20000e-02,-1.04000e+01,-5.36000e-01,-6.00000e-02,
123,6.00000e-02,-9.80000e+00,-5.20000e-01,-5.00000e-02,
124,4.20000e-02,-1.04000e+01,-5.36000e-01,-5.00000e-02,
125,6.00000e-02,-9.80000e+00,-5.28000e-01,-6.00000e-02,
126,6.00000e-02,-1.04000e+01,-5.36000e-01,-6.00000e-02,
127,4.00000e-02,-9.80000e+00,-5.28000e-01,-4.80000e-02,
128,4.20000e-02,-9.80000e+00,-5.36000e-01,-6.00000e-02,
129,6.00000e-02,-1.04000e+01,-5.20000e-01,-5.00000e-02,
130,4.20000e-02,-1.04000e+01,-5.36000e-01,-5.00000e-02,
131,6.00000e-02,-9.80000e+00,-5.20000e-01,-6.00000e-02,
132,4.20000e-02,-9.80000e+00,-5.36000e-01,-6.00000e-02,
133,6.00000e-02,-1.04000e+01,-5.20000e-01,-5.00000e-02,
134,4.20000e-02,-1.04000e+01,-5.36000e-01,-5.00000e-02,
135,6.00000e-02,-9.80000e+00,-5.20000e-01,-6.00000e-02,
136,4.20000e-02,-9.80000e+00,-5.36000e-01,-6.00000e-02,
137,6.00000e-02,-1.04000e+01,-5.20000e-01,-5.00000e-02,
138,4.20000e-02,-9.80000e+00,-5.36000e-01,-5.00000e-02,
139,6.00000e-02,-1.04000e+01,-5.20000e-01,-6.00000e-02,
140,4.20000e-02,-9.80000e+00,-5.36000e-01,-6.00000e-02,
141,5.80000e-02,-1.04000e+01,-5.20000e-01,-5.00000e-02,
142,4.00000e-02,-1.04000e+01,-5.36000e-01,-5.00000e-02,
143,6.00000e-02,-9.80000e+00,-5.20000e-01,-6.20000e-02,
144,4.00000e-02,-9.80000e+00,-5.36000e-01,-5.00000e-02,
145,6.00000e-02,-1.04000e+01,-5.20000e-01,-6.20000e-02,
146,5.80000e-02,-1.04000e+01,-5.36000e-01,-5.00000e-02,
147,4.00000e-02,-9.80000e+00,-5.20000e-01,-6.20000e-02,
148,6.00000e-02,-1.04000e+01,-5.36000e-01,-6.00000e-02,
149,4.00000e-02,-9.80000e+00,-5.20000e-01,-5.00000e-02,
150,5.80000e-02,-1.04000e+01,-5.36000e-01,-6.00000e-02,
151,4.00000e-02,-9.80000e+00,-5.20000e-01,-5.00000e-02,
152,4.00000e-02,-1.04000e+01,-5.20000e-01,-6.00000e-02,
153,6.20000e-02,-9.80000e+00,-5.36000e-01,-5.00000e-02,
154,6.00000e-02,-9.80000e+00,-5.20000e-01,-5.00000e-02,
155,4.20000e-02,-1.04000e+01,-5.36000e-01,-6.40000e-02,
156,4.20000e-02,-1.04000e+01,-5.36000e-01,-5.00000e-02,
157,6.00000e-02,-9.80000e+00,-5.20000e-01,-6.00000e-02,
158,4.20000e-02,-1.04000e+01,-5.36000e-01,-5.00000e-02,
159,6.00000e-02,-9.80000e+00,-5.20000e-01,-6.00000e-02,
160,4.20000e-02,-1.04000e+01,-5.20000e-01,-5.00000e-02,
161,6.00000e-02,-9.80000e+00,-5.36000e-01,-6.00000e-02,
162,6.00000e-02,-1.04000e+01,-5.36000e-01,-5.00000e-02,
163,4.20000e-02,-9.80000e+00,-5.20000e-01,-6.40000e-02,
164,6.00000e-02,-1.04000e+01,-5.20000e-01,-5.00000e-02,
165,4.20000e-02,-9.80000e+00,-5.36000e-01,-6.00000e-02,
166,6.00000e-02,-1.04000e+01,-5.36000e-01,-6.00000e-02,
167,4.20000e-02,-9.80000e+00,-5.20000e-01,-5.00000e-02,
168,4.20000e-02,-1.04000e+01,-5.20000e-01,-6.00000e-02,
169,6.00000e-02,-9.80000e+00,-5.36000e-01,-4.80000e-02,
170,4.20000e-02,-1.04000e+01,-5.20000e-01,-6.00000e-02,
171,6.00000e-02,-9.80000e+00,-5.36000e-01,-5.00000e-02,
172,6.00000e-02,-1.04000e+01,-5.20000e-01,-6.00000e-02,
173,4.20000e-02,-9.80000e+00,-5.36000e-01,-5.00000e-02,
174,4.20000e-02,-9.80000e+00,-5.20000e-01,-6.00000e-02,
175,5.80000e-02,-1.04000e+01,-5.36000e-01,-5.00000e-02,
176,6.00000e-02,-9.80000e+00,-5.20000e-01,-5.20000e-02,
177,4.00000e-02,-1.04000e+01,-5.36000e-01,-6.40000e-02,
178,4.20000e-02,-1.04000e+01,-5.36000e-01,-6.00000e-02,
179,6.00000e-02,-9.80000e+00,-5.20000e-01,-5.00000e-02,
180,5.80000e-02,-1.04000e+01,-5.20000e-01,-6.00000e-02,
181,4.20000e-02,-9.80000e+00,-5.36000e-01,-5.00000e-02,
182,6.00000e-02,-9.80000e+00,-5.20000e-01,-6.20000e-02,
183,4.00000e-02,-1.04000e+01,-5.36000e-01,-4.80000e-02,
184,6.00000e-02,-1.04000e+01,-5.20000e-01,-6.00000e-02,
185,4.00000e-02,-9.80000e+00,-5.36000e-01,-5.00000e-02,
186,6.00000e-02,-1.04000e+01,-5.20000e-01,-6.00000e-02,
187,4.00000e-02,-9.80000e+00,-5.36000e-01,-5.00000e-02,
188,4.00000e-02,-9.80000e+00,-5.36000e-01,-6.00000e-02,
189,6.00000e-02,-1.04000e+01,-5.20000e-01,-5.00000e-02,
190,4.20000e-02,-1.04000e+01,-5.36000e-01,-6.00000e-02,
191,6.00000e-02,-9.80000e+00,-5.20000e-01,-5.00000e-02,
192,4.20000e-02,-1.04000e+01,-5.36000e-01,-5.00000e-02,
193,6.00000e-02,-9.80000e+00,-5.20000e-01,-6.00000e-02,
194,6.00000e-02,-9.80000e+00,-5.20000e-01,-5.00000e-02,
195,4.00000e-02,-1.04000e+01,-5.36000e-01,-6.00000e-02,
196,5.80000e-02,-1.04000e+01,-5.20000e-01,-6.00000e-02,
197,4.20000e-02,-9.80000e+00,-5.36000e-01,-5.00000e-02,
198,6.00000e-02,-1.04000e+01,-5.20000e-01,-5.00000e-02,
199,4.00000e-02,-9.80000e+00,-5.36000e-01,-6.20000e-02,
200,4.20000e-02,-1.04000e+01,-5.36000e-01,-6.40000e-02,
201,5.80000e-02,-9.80000e+00,-5.20000e-01,-5.00000e-02,
202,3.80000e-02,-1.04000e+01,-5.36000e-01,-6.00000e-02,
203,5.80000e-02,-9.80000e+00,-5.20000e-01,-5.00000e-02,
204,4.20000e-02,-1.04000e+01,-5.36000e-01,-6.00000e-02,
205,6.00000e-02,-9.80000e+00,-5.20000e-01,-5.00000e-02,
206,4.20000e-02,-1.04000e+01,-5.36000e-01,-6.00000e-02,
207,6.00000e-02,-9.80000e+00,-5.20000e-01,-5.00000e-02,
208,4.20000e-02,-9.80000e+00,-5.20000e-01,-6.00000e-02,
209,6.00000e-02,-1.04000e+01,-5.36000e-01,-5.00000e-02,
210,4.20000e-02,-1.04000e+01,-5.20000e-01,-5.00000e-02,
211,5.80000e-02,-9.80000e+00,-5.36000e-01,-6.20000e-02,
212,4.20000e-02,-9.80000e+00,-5.36000e-01,-6.00000e-02,
213,6.00000e-02,-1.04000e+01,-5.20000e-01,-4.80000e-02,
214,4.20000e-02,-1.04000e+01,-5.20000e-01,-5.00000e-02,
215,6.00000e-02,-9.80000e+00,-5.36000e-01,-6.00000e-02,
216,4.20000e-02,-1.04000e+01,-5.36000e-01,-5.00000e-02,
217,6.00000e-02,-9.80000e+00,-5.20000e-01,-6.00000e-02,
218,4.20000e-02,-9.80000e+00,-5.36000e-01,-5.00000e-02,
219,6.00000e-02,-1.04000e+01,-5.20000e-01,-6.00000e-02,
220,4.20000e-02,-9.80000e+00,-5.20000e-01,-6.00000e-02,
221,6.20000e-02,-1.04000e+01,-5.36000e-01,-5.00000e-02,
222,4.20000e-02,-9.80000e+00,-5.20000e-01,-6.00000e-02,
223,6.00000e-02,-1.04000e+01,-5.36000e-01,-5.00000e-02,
224,4.20000e-02,-1.04000e+01,-5.20000e-01,-6.00000e-02,
225,6.00000e-02,-9.80000e+00,-5.36000e-01,-5.00000e-02,
226,4.20000e-02,-1.04000e+01,-5.36000e-01,-6.00000e-02,
227,6.00000e-02,-9.80000e+00,-5.20000e-01,-5.00000e-02,
228,6.00000e-02,-9.80000e+00,-5.36000e-01,-5.00000e-02,
229,4.00000e-02,-1.04000e+01,-5.20000e-01,-6.00000e-02,
230,6.00000e-02,-1.04000e+01,-5.20000e-01,-6.00000e-02,
231,4.20000e-02,-9.80000e+00,-5.36000e-01,-5.00000e-02,
232,4.20000e-02,-9.80000e+00,-5.36000e-01,-6.00000e-02,
233,6.00000e-02,-1.04000e+01,-5.20000e-01,-5.00000e-02,
234,4.00000e-02,-1.04000e+01,-5.36000e-01,-6.00000e-02,
235,6.00000e-02,-9.80000e+00,-5.20000e-01,-5.00000e-02,
236,6.00000e-02,-1.04000e+01,-5.20000e-01,-5.00000e-02,
237,4.00000e-02,-9.80000e+00,-5.36000e-01,-6.20000e-02,
238,4.20000e-02,-9.80000e+00,-5.20000e-01,-6.00000e-02,
239,6.00000e-02,-1.04000e+01,-5.36000e-01,-5.00000e-02,
240,6.00000e-02,-1.04000e+01,-5.36000e-01,-5.00000e-02,
241,4.20000e-02,-9.80000e+00,-5.20000e-01,-6.00000e-02,
242,4.20000e-02,-1.04000e+01,-5.20000e-01,-4.80000e-02,
243,6.00000e-02,-9.80000e+00,-5.36000e-01,-6.00000e-02,
244,4.20000e-02,-9.80000e+00,-5.36000e-01,-6.00000e-02,
245,6.00000e-02,-1.04000e+01,-5.20000e-01,-5.00000e-02,
246,4.20000e-02,-1.04000e+01,-5.36000e-01,-6.00000e-02,
247,6.00000e-02,-9.80000e+00,-5.20000e-01,-5.00000e-02,
248,6.00000e-02,-1.04000e+01,-5.36000e-01,-6.00000e-02,
249,4.20000e-02,-9.80000e+00,-5.20000e-01,-5.00000e-02,
250,6.00000e-02,-9.80000e+00,-5.36000e-01,-6.00000e-02,
251,4.00000e-02,-1.04000e+01,-5.20000e-01,-5.00000e-02,
252,4.20000e-02,-1.04000e+01,-5.36000e-01,-6.00000e-02,
253,5.80000e-02,-9.80000e+00,-5.20000e-01,-5.00000e-02,
254,6.00000e-02,-1.04000e+01,-5.36000e-01,-6.00000e-02,
255,4.00000e-02,-9.80000e+00,-5.20000e-01,-5.00000e-02,
256,4.20000e-02,-1.04000e+01,-5.36000e-01,-6.00000e-02,
257,5.80000e-02,-9.80000e+00,-5.20000e-01,-5.00000e-02,
258,6.00000e-02,-1.04000e+01,-5.36000e-01,-6.00000e-02,
259,3.60000e-02,-9.80000e+00,-5.20000e-01,-4.80000e-02,
260,4.20000e-02,-9.80000e+00,-5.36000e-01,-6.00000e-02,
261,6.00000e-02,-1.04000e+01,-5.20000e-01,-5.00000e-02,
262,5.80000e-02,-9.80000e+00,-5.36000e-01,-6.00000e-02,
263,4.20000e-02,-1.04000e+01,-5.20000e-01,-5.00000e-02,
264,4.20000e-02,-1.04000e+01,-5.20000e-01,-6.00000e-02,
265,6.00000e-02,-9.80000e+00,-5.36000e-01,-5.00000e-02,
266,4.20000e-02,-1.04000e+01,-5.20000e-01,-6.00000e-02,
267,6.00000e-02,-9.80000e+00,-5.36000e-01,-5.00000e-02,
268,4.20000e-02,-1.04000e+01,-5.36000e-01,-6.00000e-02,
269,6.20000e-02,-9.80000e+00,-5.20000e-01,-5.00000e-02,
270,4.20000e-02,-1.04000e+01,-5.20000e-01,-5.00000e-02,
271,6.00000e-02,-9.80000e+00,-5.36000e-01,-6.00000e-02,
272,4.20000e-02,-1.04000e+01,-5.20000e-01,-6.00000e-02,
273,6.00000e-02,-9.80000e+00,-5.36000e-01,-4.80000e-02,
274,4.20000e-02,-1.04000e+01,-5.36000e-01,-5.00000e-02,
275,6.00000e-02,-9.80000e+00,-5.20000e-01,-6.00000e-02,
276,4.20000e-02,-1.04000e+01,-5.20000e-01,-5.00000e-02,
277,6.00000e-02,-9.80000e+00,-5.36000e-01,-6.00000e-02,
278,4.20000e-02,-1.04000e+01,-5.36000e-01,-5.00000e-02,
279,5.80000e-02,-9.80000e+00,-5.20000e-01,-6.00000e-02,
280,6.00000e-02,-1.04000e+01,-5.36000e-01,-6.00000e-02,
281,4.20000e-02,-9.80000e+00,-5.20000e-01,-5.00000e-02,
282,5.80000e-02,-1.04000e+01,-5.36000e-01,-6.20000e-02,
283,4.20000e-02,-9.80000e+00,-5.20000e-01,-5.00000e-02,
284,4.20000e-02,-9.80000e+00,-5.36000e-01,-6.00000e-02,
285,6.00000e-02,-1.04000e+01,-5.20000e-01,-5.00000e-02,
286,4.20000e-02,-9.80000e+00,-5.36000e-01,-6.00000e-02,
287,6.00000e-02,-1.04000e+01,-5.20000e-01,-5.00000e-02,
288,4.20000e-02,-1.04000e+01,-5.36000e-01,-5.00000e-02,
289,5.80000e-02,-9.80000e+00,-5.20000e-01,-6.00000e-02,
290,4.20000e-02,-9.80000e+00,-5.20000e-01,-6.00000e-02,
291,6.00000e-02,-1.04000e+01,-5.36000e-01,-5.00000e-02,
292,4.20000e-02,-1.04000e+01,-5.20000e-01,-6.00000e-02,
293,6.00000e-02,-9.80000e+00,-5.36000e-01,-5.00000e-02,
294,4.20000e-02,-1.04000e+01,-5.36000e-01,-5.00000e-02,
295,6.00000e-02,-9.80000e+00,-5.20000e-01,-6.20000e-02,
296,4.20000e-02,-1.04000e+01,-5.36000e-01,-5.00000e-02,
297,6.00000e-02,-9.80000e+00,-5.20000e-01,-6.00000e-02,
298,4.20000e-02,-1.04000e+01,-5.36000e-01,-6.00000e-02,
299,6.00000e-02,-9.80000e+00,-5.20000e-01,-5.00000e-02,
300,5.80000e-02,-1.04000e+01,-5.36000e-01,-6.00000e-02,
301,4.00000e-02,-9.80000e+00,-5.20000e-01,-5.00000e-02,
302,4.20000e-02,-1.04000e+01,-5.20000e-01,-6.00000e-02,
303,6.00000e-02,-9.80000e+00,-5.36000e-01,-5.00000e-02,
304,4.20000e-02,-9.80000e+00,-5.36000e-01,-5.00000e-02,
305,6.00000e-02,-1.04000e+01,-5.20000e-01,-6.40000e-02,
306,5.80000e-02,-1.04000e+01,-5.20000e-01,-6.00000e-02,
307,4.20000e-02,-9.80000e+00,-5.36000e-01,-5.00000e-02,
308,4.20000e-02,-1.04000e+01,-5.36000e-01,-5.20000e-02,
309,5.80000e-02,-9.80000e+00,-5.20000e-01,-6.20000e-02,
310,5.80000e-02,-1.04000e+01,-5.20000e-01,-5.00000e-02,
311,3.80000e-02,-9.80000e+00,-5.36000e-01,-6.20000e-02,
312,6.00000e-02,-1.04000e+01,-5.36000e-01,-6.20000e-02,
313,4.00000e-02,-9.80000e+00,-5.20000e-01,-5.00000e-02,
314,5.80000e-02,-1.04000e+01,-5.36000e-01,-5.00000e-02,
315,4.00000e-02,-9.80000e+00,-5.20000e-01,-6.20000e-02,
316,5.80000e-02,-9.80000e+00,-5.36000e-01,-6.20000e-02,
317,4.00000e-02,-1.04000e+01,-5.20000e-01,-5.20000e-02,
318,4.00000e-02,-9.80000e+00,-5.20000e-01,-5.00000e-02,
319,6.00000e-02,-1.04000e+01,-5.36000e-01,-6.20000e-02,
320,5.80000e-02,-9.80000e+00,-5.36000e-01,-6.20000e-02,
321,3.80000e-02,-1.04000e+01,-5.20000e-01,-5.00000e-02,
322,5.80000e-02,-1.04000e+01,-5.36000e-01,-5.20000e-02,
323,3.80000e-02,-9.80000e+00,-5.20000e-01,-6.20000e-02,
324,5.80000e-02,-9.80000e+00,-5.20000e-01,-6.00000e-02,
325,4.20000e-02,-1.04000e+01,-5.36000e-01,-5.00000e-02,
326,5.80000e-02,-1.04000e+01,-5.20000e-01,-5.00000e-02,
327,3.80000e-02,-9.80000e+00,-5.36000e-01,-6.20000e-02,
328,3.80000e-02,-1.04000e+01,-5.20000e-01,-6.00000e-02,
329,6.00000e-02,-9.80000e+00,-5.36000e-01,-5.00000e-02,
330,4.20000e-02,-9.80000e+00,-5.20000e-01,-6.00000e-02,
331,6.00000e-02,-1.04000e+01,-5.36000e-01,-5.00000e-02,
332,4.20000e-02,-9.80000e+00,-5.20000e-01,-6.00000e-02,
333,6.00000e-02,-1.04000e+01,-5.36000e-01,-5.00000e-02,
334,5.80000e-02,-1.04000e+01,-5.36000e-01,-5.00000e-02,
335,4.20000e-02,-9.80000e+00,-5.20000e-01,-6.40000e-02,
336,4.20000e-02,-1.04000e+01,-5.20000e-01,-6.00000e-02,
337,5.80000e-02,-9.80000e+00,-5.36000e-01,-5.00000e-02,
338,4.20000e-02,-9.80000e+00,-5.20000e-01,-6.00000e-02,
339,6.00000e-02,-1.04000e+01,-5.36000e-01,-5.00000e-02,
340,5.80000e-02,-1.04000e+01,-5.20000e-01,-6.00000e-02,
341,4.20000e-02,-9.80000e+00,-5.36000e-01,-4.80000e-02,
342,4.20000e-02,-9.80000e+00,-5.20000e-01,-5.00000e-02,
343,6.00000e-02,-1.04000e+01,-5.36000e-01,-6.00000e-02,
344,4.20000e-02,-9.80000e+00,-5.36000e-01,-5.00000e-02,
345,6.00000e-02,-1.04000e+01,-5.20000e-01,-6.00000e-02,
346,4.20000e-02,-1.04000e+01,-5.36000e-01,-5.00000e-02,
347,6.00000e-02,-9.80000e+00,-5.20000e-01,-6.20000e-02,
348,4.20000e-02,-9.80000e+00,-5.20000e-01,-6.00000e-02,
349,6.00000e-02,-1.04000e+01,-5.36000e-01,-4.80000e-02,
350,-6.40000e-02,-1.02000e+01,-5.36000e-01,3.00000e-02,
351,-4.20000e-02,1.00000e+00,8.80000e-02,5.40000e-02,
352,-4.40000e-02,8.00000e-01,8.80000e-02,4.20000e-02,
353,-6.00000e-02,6.60000e+00,3.52000e-01,5.40000e-02,
354,-4.40000e-02,6.40000e+00,3.52000e-01,4.20000e-02,
355,-6.00000e-02,8.80000e+00,4.64000e-01,5.40000e-02,
356,-4.40000e-02,8.60000e+00,4.56000e-01,5.40000e-02,
357,-6.20000e-02,9.80000e+00,5.12000e-01,4.00000e-02,
358,-6.00000e-02,9.60000e+00,4.96000e-01,4.20000e-02,
359,-4.20000e-02,1.00000e+01,5.28000e-01,5.40000e-02,
360,-4.40000e-02,9.80000e+00,5.20000e-01,4.20000e-02,
