data/transients_measurements/transient_25kHz_output_voltage_diff_10kR.csv

X,CH1,CH2,CH3,CH4,Start,Increment
Sequence,Volt,Volt,Volt,Volt,-0.000704,1E-06
0,0.0008,0.72,-0.0254,0,,
1,0.0008,0.72,-0.0254,0,,
2,0.0008,0.76,-0.0254,0,,
3,0.0008,0.76,-0.0254,0,,
4,0,0.72,-0.0254,0,,
5,0,0.72,-0.0254,0,,
6,0,0.72,-0.0254,0,,
7,0,0.72,-0.0254,0,,
8,0.0008,0.74,-0.0254,0.08,,
9,0.0008,0.74,-0.0254,0.08,,
10,0,0.72,-0.0254,0.08,,
11,0,0.72,-0.0254,0.08,,
12,0.0008,0.74,-0.0254,0.08,,
13,0.0008,0.74,-0.0254,0.08,,
14,0,0.72,-0.0254,0,,
15,0,0.72,-0.0254,0,,
16,0.0008,0.72,-0.0254,0,,
17,0.0008,0.72,-0.0254,0,,
18,0,0.74,-0.0254,0,,
19,0,0.74,-0.0254,0,,
20,0,0.74,-0.0254,0,,
21,0,0.74,-0.0254,0,,
22,0.0008,0.74,-0.0254,0,,
23,0.0008,0.74,-0.0254,0,,
24,0,0.74,-0.0254,0,,
25,0,0.74,-0.0254,0,,
26,0.0008,0.72,-0.0254,0,,
27,0.0008,0.72,-0.0254,0,,
28,0,0.74,-0.0254,0,,
29,0,0.74,-0.0254,0,,
30,0,0.74,-0.0254,0,,
31,0,0.74,-0.0254,0,,
32,0.0008,0.72,-0.0254,0,,
33,0.0008,0.72,-0.0254,0,,
34,-0.0008,0.72,-0.0254,0.08,,
35,-0.0008,0.72,-0.0254,0.08,,
36,0,0.72,-0.0254,0.08,,
37,0,0.72,-0.0254,0.08,,
38,0.0008,0.74,-0.0254,0.08,,
39,0.0008,0.74,-0.0254,0.08,,
40,0,0.72,-0.0254,0.08,,
41,0,0.72,-0.0254,0.08,,
42,0,0.72,-0.0254,0.08,,
43,0,0.72,-0.0254,0.08,,
44,0,0.74,-0.0254,0.08,,
45,0,0.74,-0.0254,0.08,,
46,0,0.72,-0.0254,0.08,,
47,0,0.72,-0.0254,0.08,,
48,0,0.72,-0.0254,0,,
49,0,0.72,-0.0254,0,,
50,0.0008,0.72,-0.0254,0,,
51,0.0008,0.72,-0.0254,0,,
52,0,0.74,-0.0254,0,,
53,0,0.74,-0.0254,0,,
54,0,0.74,-0.0254,0,,
55,0,0.74,-0.0254,0,,
56,0,0.72,-0.0254,0,,
57,0,0.72,-0.0254,0,,
58,0,0.74,-0.0254,0,,
59,0,0.74,-0.0254,0,,
60,0.0008,0.72,-0.0254,0,,
61,0.0008,0.72,-0.0254,0,,
62,0.0008,0.72,-0.0254,0,,
63,0.0008,0.72,-0.0254,0,,
64,0.0008,0.74,-0.0254,0,,
65,0.0008,0.74,-0.0254,0,,
66,0.0008,0.74,-0.0254,0,,
67,0.0008,0.74,-0.0254,0,,
68,0.0008,0.76,-0.0254,0,,
69,0.0008,0.76,-0.0254,0,,
70,0.0016,0.72,-0.0254,0,,
71,0.0016,0.72,-0.0254,0,,
72,0.0008,0.72,-0.0254,0,,
73,0.0008,0.72,-0.0254,0,,
74,0,0.72,-0.0254,0,,
75,0,0.72,-0.0254,0,,
76,0,0.72,-0.0254,0,,
77,0,0.72,-0.0254,0,,
78,0,0.72,-0.0254,0,,
79,0,0.72,-0.0254,0,,
80,0,0.72,-0.0254,0,,
81,0,0.72,-0.0254,0,,
82,0,0.74,-0.0254,0.08,,
83,0,0.74,-0.0254,0.08,,
84,0.0008,0.74,-0.0254,0.08,,
85,0.0008,0.74,-0.0254,0.08,,
86,0,0.74,-0.0254,0.08,,
87,0,0.74,-0.0254,0.08,,
88,0.0008,0.72,-0.0254,0,,
89,0.0008,0.72,-0.0254,0,,
90,0.0008,0.72,-0.0254,0,,
91,0.0008,0.72,-0.0254,0,,
92,0.0008,0.72,-0.0254,0,,
93,0.0008,0.72,-0.0254,0,,
94,0,0.72,-0.0254,0,,
95,0,0.72,-0.0254,0,,
96,0.0008,0.72,-0.0254,0,,
97,0.0008,0.72,-0.0254,0,,
98,0,0.72,-0.0254,0,,
99,0,0.72,-0.0254,0,,
100,0,0.72,-0.0254,0,,
101,0,0.72,-0.0254,0,,
102,-0.0008,0.74,-0.0254,0,,
103,-0.0008,0.74,-0.0254,0,,
104,0,0.74,-0.0254,0.08,,
105,0,0.74,-0.0254,0.08,,
106,0,0.72,-0.0254,0.08,,
107,0,0.72,-0.0254,0.08,,
108,0,0.72,-0.0254,0.08,,
109,0,0.72,-0.0254,0.08,,
110,0,0.72,-0.0254,0,,
111,0,0.72,-0.0254,0,,
112,0.0008,0.72,-0.0254,0,,
113,0.0008,0.72,-0.0254,0,,
114,0,0.74,-0.0254,0.08,,
115,0,0.74,-0.0254,0.08,,
116,0.0008,0.72,-0.0254,0.08,,
117,0.0008,0.72,-0.0254,0.08,,
118,0,0.72,-0.0254,0,,
119,0,0.72,-0.0254,0,,
120,0.0008,0.72,-0.0254,0,,
121,0.0008,0.72,-0.0254,0,,
122,0,0.74,-0.0254,0,,
123,0,0.74,-0.0254,0,,
124,0.0008,0.72,-0.0254,0,,
125,0.0008,0.72,-0.0254,0,,
126,0,0.72,-0.0254,0,,
127,0,0.72,-0.0254,0,,
128,0.0008,0.74,-0.0254,0,,
129,0.0008,0.74,-0.0254,0,,
130,0.0008,0.72,-0.0254,0,,
131,0.0008,0.72,-0.0254,0,,
132,0.0008,0.74,-0.0254,0.08,,
133,0.0008,0.74,-0.0254,0.08,,
134,0.0008,0.72,-0.0254,0,,
135,0.0008,0.72,-0.0254,0,,
136,0,0.74,-0.0254,0,,
137,0,0.74,-0.0254,0,,
138,0,0.74,-0.0254,0.08,,
139,0,0.74,-0.0254,0.08,,
140,0.0008,0.72,-0.0254,0.08,,
141,0.0008,0.72,-0.0254,0.08,,
142,0,0.72,-0.0254,0,,
143,0,0.72,-0.0254,0,,
144,0.0008,0.76,-0.0254,0,,
145,0.0008,0.76,-0.0254,0,,
146,0.0008,0.74,-0.0254,0,,
147,0.0008,0.74,-0.0254,0,,
148,0,0.74,-0.0254,0,,
149,0,0.74,-0.0254,0,,
150,0,0.72,-0.0254,0,,
151,0,0.72,-0.0254,0,,
152,0,0.72,-0.0254,0,,
153,0,0.72,-0.0254,0,,
154,0,0.76,-0.0254,0,,
155,0,0.76,-0.0254,0,,
156,0,0.74,-0.0254,0,,
157,0,0.74,-0.0254,0,,
158,0,0.72,-0.0254,0.08,,
159,0,0.72,-0.0254,0.08,,
160,0.0008,0.74,-0.0254,0,,
161,0.0008,0.74,-0.0254,0,,
162,0,0.74,-0.0254,0,,
163,0,0.74,-0.0254,0,,
164,0.0008,0.72,-0.0254,0,,
165,0.0008,0.72,-0.0254,0,,
166,0,0.72,-0.0254,0,,
167,0,0.72,-0.0254,0,,
168,0,0.72,-0.0254,0.08,,
169,0,0.72,-0.0254,0.08,,
170,0,0.74,-0.0254,0.08,,
171,0,0.74,-0.0254,0.08,,
172,0,0.72,-0.0254,0.08,,
173,0,0.72,-0.0254,0.08,,
174,0.0008,0.74,-0.0254,0.08,,
175,0.0008,0.74,-0.0254,0.08,,
176,0,0.74,-0.0254,0.08,,
177,0,0.74,-0.0254,0.08,,
178,0.0008,0.74,-0.0254,0.08,,
179,0.0008,0.74,-0.0254,0.08,,
180,0.0008,0.74,-0.0254,0.08,,
181,0.0008,0.74,-0.0254,0.08,,
182,0,0.74,-0.0254,0.08,,
183,0,0.74,-0.0254,0.08,,
184,0,0.72,-0.0254,0.08,,
185,0,0.72,-0.0254,0.08,,
186,0,0.74,-0.0254,0,,
187,0,0.74,-0.0254,0,,
188,0,0.74,-0.0254,0,,
189,0,0.74,-0.0254,0,,
190,0,0.72,-0.0254,0,,
191,0,0.72,-0.0254,0,,
192,0.0008,0.72,-0.0254,0,,
193,0.0008,0.72,-0.0254,0,,
194,0,0.74,-0.0254,0,,
195,0,0.74,-0.0254,0,,
196,0,0.72,-0.0254,0,,
197,0,0.72,-0.0254,0,,
198,0.0008,0.74,-0.0254,0,,
199,0.0008,0.74,-0.0254,0,,
200,0.0008,0.72,-0.0254,0,,
201,0.0008,0.72,-0.0254,0,,
202,-0.0008,0.06,-0.0254,0,,
203,-0.0008,0.06,-0.0254,0,,
204,0.0008,0,-0.0254,0.08,,
205,0.0008,0,-0.0254,0.08,,
206,0.0008,0,-0.0254,0,,
207,0.0008,0,-0.0254,0,,
208,0,-0.02,-0.0254,0,,
209,0,-0.02,-0.0254,0,,
210,0.0016,0,-0.0254,0,,
211,0.0016,0,-0.0254,0,,
212,0.0008,-0.02,-0.0254,0,,
213,0.0008,-0.02,-0.0254,0,,
214,0.0008,0,-0.0254,0,,
215,0.0008,0,-0.0254,0,,
216,0.0008,-0.02,-0.0254,0,,
217,0.0008,-0.02,-0.0254,0,,
218,0.0008,-0.02,-0.0254,0.08,,
219,0.0008,-0.02,-0.0254,0.08,,
220,0.0016,0,-0.0254,0.08,,
221,0.0016,0,-0.0254,0.08,,
222,0,0,-0.0254,0.08,,
223,0,0,-0.0254,0.08,,
224,0.0008,-0.02,-0.0254,0.08,,
225,0.0008,-0.02,-0.0254,0.08,,
226,0,0,-0.0254,0,,
227,0,0,-0.0254,0,,
228,0,0,-0.0254,0,,
229,0,0,-0.0254,0,,
230,0,0,-0.0254,0.08,,
231,0,0,-0.0254,0.08,,
232,0,-0.02,-0.0254,0.08,,
233,0,-0.02,-0.0254,0.08,,
234,0,0,-0.0254,0,,
235,0,0,-0.0254,0,,
236,0.0008,0,-0.0254,0,,
237,0.0008,0,-0.0254,0,,
238,0.0008,-0.02,-0.0254,0,,
239,0.0008,-0.02,-0.0254,0,,
240,0.0008,0,-0.0254,0,,
241,0.0008,0,-0.0254,0,,
242,0,0,-0.0254,0,,
243,0,0,-0.0254,0,,
244,0.0016,0,-0.0254,0,,
245,0.0016,0,-0.0254,0,,
246,0,0,-0.0254,0,,
247,0,0,-0.0254,0,,
248,0.0008,-0.02,-0.0254,0.08,,
249,0.0008,-0.02,-0.0254,0.08,,
250,0.0008,-0.02,-0.0254,0.08,,
251,0.0008,-0.02,-0.0254,0.08,,
252,0,-0.02,-0.0254,0.08,,
253,0,-0.02,-0.0254,0.08,,
254,0,0,-0.0254,0.08,,
255,0,0,-0.0254,0.08,,
256,0.0008,-0.02,-0.0254,0,,
257,0.0008,-0.02,-0.0254,0,,
258,0,0,-0.0254,0,,
259,0,0,-0.0254,0,,
260,0,-0.02,-0.0254,0,,
261,0,-0.02,-0.0254,0,,
262,0.0008,-0.02,-0.0254,0,,
263,0.0008,-0.02,-0.0254,0,,
264,0.0008,0,-0.0254,0.08,,
265,0.0008,0,-0.0254,0.08,,
266,0.0008,0,-0.0254,0,,
267,0.0008,0,-0.0254,0,,
268,0.0008,0,-0.0254,0,,
269,0.0008,0,-0.0254,0,,
270,0,0,-0.0254,0,,
271,0,0,-0.0254,0,,
272,0,0,-0.0254,0.08,,
273,0,0,-0.0254,0.08,,
274,0,-0.02,-0.0254,0.08,,
275,0,-0.02,-0.0254,0.08,,
276,0.0008,0,-0.0254,0.08,,
277,0.0008,0,-0.0254,0.08,,
278,0,-0.02,-0.0254,0.08,,
279,0,-0.02,-0.0254,0.08,,
280,0.0008,0,-0.0254,0,,
281,0.0008,0,-0.0254,0,,
282,0,-0.02,-0.0254,0,,
283,0,-0.02,-0.0254,0,,
284,0.0008,0,-0.0254,0,,
285,0.0008,0,-0.0254,0,,
286,0.0008,-0.02,-0.0254,0,,
287,0.0008,-0.02,-0.0254,0,,
288,0.0016,-0.02,-0.0254,0.08,,
289,0.0016,-0.02,-0.0254,0.08,,
290,0.0008,-0.02,-0.0254,0,,
291,0.0008,-0.02,-0.0254,0,,
292,0.0008,-0.02,-0.0254,0,,
293,0.0008,-0.02,-0.0254,0,,
294,0.0008,0,-0.0254,0,,
295,0.0008,0,-0.0254,0,,
296,0.0016,0,-0.0254,0,,
297,0.0016,0,-0.0254,0,,
298,0.0008,-0.02,-0.0254,0,,
299,0.0008,-0.02,-0.0254,0,,
300,0,0,-0.0254,0.08,,
301,0,0,-0.0254,0.08,,
302,0,-0.02,-0.0254,0,,
303,0,-0.02,-0.0254,0,,
304,0.0008,-0.02,-0.0254,0,,
305,0.0008,-0.02,-0.0254,0,,
306,0,0,-0.0254,0,,
307,0,0,-0.0254,0,,
308,0,0,-0.0254,0,,
309,0,0,-0.0254,0,,
310,0,0,-0.0254,0,,
311,0,0,-0.0254,0,,
312,0,0,-0.0254,0,,
313,0,0,-0.0254,0,,
314,0.0008,-0.02,-0.0254,0,,
315,0.0008,-0.02,-0.0254,0,,
316,0.0008,0,-0.0254,0,,
317,0.0008,0,-0.0254,0,,
318,0.0008,-0.02,-0.0254,0,,
319,0.0008,-0.02,-0.0254,0,,
320,0.0008,-0.02,-0.0254,0,,
321,0.0008,-0.02,-0.0254,0,,
322,0.0008,0,-0.0254,0,,
323,0.0008,0,-0.0254,0,,
324,0.0008,0,-0.0254,0,,
325,0.0008,0,-0.0254,0,,
326,0.0008,-0.02,-0.0254,0,,
327,0.0008,-0.02,-0.0254,0,,
328,0.0008,0,-0.0254,0,,
329,0.0008,0,-0.0254,0,,
330,0.0008,-0.02,-0.0254,0,,
331,0.0008,-0.02,-0.0254,0,,
332,0.0008,0,-0.0254,0,,
333,0.0008,0,-0.0254,0,,
334,0.0008,-0.02,-0.0254,0,,
335,0.0008,-0.02,-0.0254,0,,
336,0,-0.02,-0.0254,0,,
337,0,-0.02,-0.0254,0,,
338,0.0008,0,-0.0254,0,,
339,0.0008,0,-0.0254,0,,
340,0,-0.02,-0.0254,0,,
341,0,-0.02,-0.0254,0,,
342,0.0008,-0.02,-0.0254,0,,
343,0.0008,-0.02,-0.0254,0,,
344,0,0,-0.0254,0,,
345,0,0,-0.0254,0,,
346,0.0008,0,-0.0254,0,,
347,0.0008,0,-0.0254,0,,
348,0.0008,0,-0.0254,0,,
349,0.0008,0,-0.0254,0,,
350,0.0008,-0.02,-0.0254,0,,
351,0.0008,-0.02,-0.0254,0,,
352,0,-0.02,-0.0254,0,,
353,0,-0.02,-0.0254,0,,
354,0,0,-0.0254,0,,
355,0,0,-0.0254,0,,
356,0,-0.02,-0.0254,0,,
357,0,-0.02,-0.0254,0,,
358,0,-0.02,-0.0254,0,,
359,0,-0.02,-0.0254,0,,
360,0,-0.02,-0.0254,0,,
361,0,-0.02,-0.0254,0,,
362,0,0,-0.0254,0,,
363,0,0,-0.0254,0,,
364,0,0,-0.0254,0,,
365,0,0,-0.0254,0,,
366,0.0008,0,-0.0254,0,,
367,0.0008,0,-0.0254,0,,
368,0,0,-0.0254,0,,
369,0,0,-0.0254,0,,
370,0.0008,-0.02,-0.0254,0,,
371,0.0008,-0.02,-0.0254,0,,
372,0.0008,-0.02,-0.0254,0,,
373,0.0008,-0.02,-0.0254,0,,
374,0.0016,0,-0.0254,0,,
375,0.0016,0,-0.0254,0,,
376,0.0024,0,-0.0254,0.08,,
377,0.0024,0,-0.0254,0.08,,
378,0.008,0,-0.0254,0.24,,
379,0.008,0,-0.0254,0.24,,
380,0.0088,-0.02,-0.0254,0.4,,
381,0.0088,-0.02,-0.0254,0.4,,
382,0.0096,-0.02,-0.0254,0.48,,
383,0.0096,-0.02,-0.0254,0.48,,
384,0.0112,0,-0.0254,0.64,,
385,0.0112,0,-0.0254,0.64,,
386,0.0128,0,-0.0254,0.88,,
387,0.0128,0,-0.0254,0.88,,
388,0.0144,-0.02,-0.0254,0.96,,
389,0.0144,-0.02,-0.0254,0.96,,
390,0.0232,0,-0.0254,1.36,,
391,0.0232,0,-0.0254,1.36,,
392,0.0368,0,-0.0254,2,,
393,0.0368,0,-0.0254,2,,
394,0.0496,0,-0.0254,2.72,,
395,0.0496,0,-0.0254,2.72,,
396,0.0512,0,-0.0254,3.52,,
397,0.0512,0,-0.0254,3.52,,
398,0.0376,-0.02,-0.0254,4.16,,
399,0.0376,-0.02,-0.0254,4.16,,
400,0.0168,0,-0.0254,4.4,,
401,0.0168,0,-0.0254,4.4,,
402,0.0064,-0.02,-0.0254,4.48,,
403,0.0064,-0.02,-0.0254,4.48,,
404,0.0032,-0.02,-0.0254,4.64,,
405,0.0032,-0.02,-0.0254,4.64,,
406,0.0008,-0.02,-0.0254,4.64,,
407,0.0008,-0.02,-0.0254,4.64,,
408,0.0016,-0.02,-0.0254,4.64,,
409,0.0016,-0.02,-0.0254,4.64,,
410,0.0016,-0.02,-0.0254,4.64,,
411,0.0016,-0.02,-0.0254,4.64,,
412,0.0016,0,-0.0254,4.64,,
413,0.0016,0,-0.0254,4.64,,
414,0.0008,0,-0.0254,4.64,,
415,0.0008,0,-0.0254,4.64,,
416,0.0016,0,-0.0254,4.64,,
417,0.0016,0,-0.0254,4.64,,
418,0.0016,-0.02,-0.0254,4.64,,
419,0.0016,-0.02,-0.0254,4.64,,
420,0.0008,0,-0.0254,4.64,,
421,0.0008,0,-0.0254,4.64,,
422,0.0008,0,-0.0254,4.64,,
423,0.0008,0,-0.0254,4.64,,
424,0,-0.02,-0.0254,4.64,,
425,0,-0.02,-0.0254,4.64,,
426,0.0008,0,-0.0254,4.64,,
427,0.0008,0,-0.0254,4.64,,
428,0.0008,0,-0.0254,4.64,,
429,0.0008,0,-0.0254,4.64,,
430,0.0008,0,-0.0254,4.64,,
431,0.0008,0,-0.0254,4.64,,
432,0.0008,0,-0.0254,4.64,,
433,0.0008,0,-0.0254,4.64,,
434,0.0008,0,-0.0254,4.72,,
435,0.0008,0,-0.0254,4.72,,
436,0.0008,-0.02,-0.0254,4.72,,
437,0.0008,-0.02,-0.0254,4.72,,
438,0.0008,-0.02,-0.0254,4.72,,
439,0.0008,-0.02,-0.0254,4.72,,
440,0.0008,-0.02,-0.0254,4.64,,
441,0.0008,-0.02,-0.0254,4.64,,
442,0,-0.02,-0.0254,4.72,,
443,0,-0.02,-0.0254,4.72,,
444,0.0008,0,-0.0254,4.64,,
445,0.0008,0,-0.0254,4.64,,
446,0.0016,-0.02,-0.0254,4.64,,
447,0.0016,-0.02,-0.0254,4.64,,
448,0.0008,-0.02,-0.0254,4.72,,
449,0.0008,-0.02,-0.0254,4.72,,
450,0,0,-0.0254,4.72,,
451,0,0,-0.0254,4.72,,
452,0.0008,0,-0.0254,4.64,,
453,0.0008,0,-0.0254,4.64,,
454,0.0008,0,-0.0254,4.64,,
455,0.0008,0,-0.0254,4.64,,
456,0.0008,-0.02,-0.0254,4.64,,
457,0.0008,-0.02,-0.0254,4.64,,
458,0.0008,0,-0.0254,4.64,,
459,0.0008,0,-0.0254,4.64,,
460,0.0008,-0.02,-0.0254,4.72,,
461,0.0008,-0.02,-0.0254,4.72,,
462,0.0008,-0.02,-0.0254,4.64,,
463,0.0008,-0.02,-0.0254,4.64,,
464,0,0,-0.0254,4.64,,
465,0,0,-0.0254,4.64,,
466,0.0008,-0.02,-0.0254,4.72,,
467,0.0008,-0.02,-0.0254,4.72,,
468,0.0008,0,-0.0254,4.64,,
469,0.0008,0,-0.0254,4.64,,
470,0.0008,0,-0.0254,4.64,,
471,0.0008,0,-0.0254,4.64,,
472,0,0,-0.0254,4.72,,
473,0,0,-0.0254,4.72,,
474,0.0008,0,-0.0254,4.64,,
475,0.0008,0,-0.0254,4.64,,
476,0,0,-0.0254,4.64,,
477,0,0,-0.0254,4.64,,
478,0,0,-0.0254,4.64,,
479,0,0,-0.0254,4.64,,
480,0.0008,0,-0.0254,4.64,,
481,0.0008,0,-0.0254,4.64,,
482,0.0008,0.02,-0.0254,4.64,,
483,0.0008,0.02,-0.0254,4.64,,
484,0,0,-0.0254,4.64,,
485,0,0,-0.0254,4.64,,
486,0.0008,0,-0.0254,4.64,,
487,0.0008,0,-0.0254,4.64,,
488,0.0008,-0.02,-0.0254,4.64,,
489,0.0008,-0.02,-0.0254,4.64,,
490,0,0,-0.0254,4.64,,
491,0,0,-0.0254,4.64,,
492,0.0008,0,-0.0254,4.72,,
493,0.0008,0,-0.0254,4.72,,
494,0.0016,-0.02,-0.0254,4.64,,
495,0.0016,-0.02,-0.0254,4.64,,
496,0.0008,0,-0.0254,4.64,,
497,0.0008,0,-0.0254,4.64,,
498,0.0008,-0.02,-0.0254,4.64,,
499,0.0008,-0.02,-0.0254,4.64,,
500,0.0008,-0.02,-0.0254,4.64,,
501,0.0008,-0.02,-0.0254,4.64,,
502,0.0008,0,-0.0254,4.64,,
503,0.0008,0,-0.0254,4.64,,
504,0.0016,-0.02,-0.0254,4.64,,
505,0.0016,-0.02,-0.0254,4.64,,
506,0.0016,-0.02,-0.0254,4.72,,
507,0.0016,-0.02,-0.0254,4.72,,
508,0,-0.02,-0.0254,4.64,,
509,0,-0.02,-0.0254,4.64,,
510,0,-0.02,-0.0254,4.64,,
511,0,-0.02,-0.0254,4.64,,
512,0.0008,-0.02,-0.0254,4.72,,
513,0.0008,-0.02,-0.0254,4.72,,
514,0,0,-0.0254,4.64,,
515,0,0,-0.0254,4.64,,
516,0.0008,-0.02,-0.0254,4.64,,
517,0.0008,-0.02,-0.0254,4.64,,
518,0.0008,-0.02,-0.0254,4.64,,
519,0.0008,-0.02,-0.0254,4.64,,
520,0.0008,-0.02,-0.0254,4.72,,
521,0.0008,-0.02,-0.0254,4.72,,
522,0.0008,-0.02,-0.0254,4.64,,
523,0.0008,-0.02,-0.0254,4.64,,
524,0.0008,-0.02,-0.0254,4.64,,
525,0.0008,-0.02,-0.0254,4.64,,
526,0.0008,0,-0.0254,4.64,,
527,0.0008,0,-0.0254,4.64,,
528,0.0008,-0.02,-0.0254,4.64,,
529,0.0008,-0.02,-0.0254,4.64,,
530,0.0008,-0.02,-0.0254,4.64,,
531,0.0008,-0.02,-0.0254,4.64,,
532,0.0008,0,-0.0254,4.64,,
533,0.0008,0,-0.0254,4.64,,
534,0.0008,-0.02,-0.0254,4.64,,
535,0.0008,-0.02,-0.0254,4.64,,
536,0,0,-0.0254,4.64,,
537,0,0,-0.0254,4.64,,
538,0.0008,-0.02,-0.0254,4.64,,
539,0.0008,-0.02,-0.0254,4.64,,
540,0.0008,0,-0.0254,4.72,,
541,0.0008,0,-0.0254,4.72,,
542,0.0016,0,-0.0254,4.64,,
543,0.0016,0,-0.0254,4.64,,
544,0.0008,-0.02,-0.0254,4.64,,
545,0.0008,-0.02,-0.0254,4.64,,
546,0,-0.02,-0.0254,4.64,,
547,0,-0.02,-0.0254,4.64,,
548,0.0008,-0.02,-0.0254,4.64,,
549,0.0008,-0.02,-0.0254,4.64,,
550,0.0008,-0.02,-0.0254,4.72,,
551,0.0008,-0.02,-0.0254,4.72,,
552,0.0008,0,-0.0254,4.72,,
553,0.0008,0,-0.0254,4.72,,
554,0.0016,0,-0.0254,4.64,,
555,0.0016,0,-0.0254,4.64,,
556,0.0008,-0.02,-0.0254,4.64,,
557,0.0008,-0.02,-0.0254,4.64,,
558,0.0008,-0.02,-0.0254,4.64,,
559,0.0008,-0.02,-0.0254,4.64,,
560,0.0008,0,-0.0254,4.64,,
561,0.0008,0,-0.0254,4.64,,
562,0.0008,0,-0.0254,4.72,,
563,0.0008,0,-0.0254,4.72,,
564,0.0008,0,-0.0254,4.64,,
565,0.0008,0,-0.0254,4.64,,
566,0.0008,0,-0.0254,4.64,,
567,0.0008,0,-0.0254,4.64,,
568,0.0008,0,-0.0254,4.72,,
569,0.0008,0,-0.0254,4.72,,
570,0,0,-0.0254,4.72,,
571,0,0,-0.0254,4.72,,
572,0,0,-0.0254,4.72,,
573,0,0,-0.0254,4.72,,
574,0.0008,-0.02,-0.0254,4.72,,
575,0.0008,-0.02,-0.0254,4.72,,
576,0.0016,0,-0.0254,4.72,,
577,0.0016,0,-0.0254,4.72,,
578,0.0008,0,-0.0254,4.64,,
579,0.0008,0,-0.0254,4.64,,
580,0,-0.02,-0.0254,4.64,,
581,0,-0.02,-0.0254,4.64,,
582,0,-0.02,-0.0254,4.64,,
583,0,-0.02,-0.0254,4.64,,
584,0.0008,0,-0.0254,4.64,,
585,0.0008,0,-0.0254,4.64,,
586,0.0008,-0.02,-0.0254,4.64,,
587,0.0008,-0.02,-0.0254,4.64,,
588,0.0008,-0.02,-0.0254,4.64,,
589,0.0008,-0.02,-0.0254,4.64,,
590,0.0016,-0.02,-0.0254,4.64,,
591,0.0016,-0.02,-0.0254,4.64,,
592,0.0016,-0.02,-0.0254,4.64,,
593,0.0016,-0.02,-0.0254,4.64,,
594,0.0016,-0.02,-0.0254,4.72,,
595,0.0016,-0.02,-0.0254,4.72,,
596,0.0008,-0.02,-0.0254,4.72,,
597,0.0008,-0.02,-0.0254,4.72,,
598,0.0008,0,-0.0254,4.72,,
599,0.0008,0,-0.0254,4.72,,
600,0.0008,-0.02,-0.0254,4.64,,
601,0.0008,-0.02,-0.0254,4.64,,
602,0.0016,0,-0.0254,4.64,,
603,0.0016,0,-0.0254,4.64,,
604,0.0008,-0.02,-0.0254,4.64,,
605,0.0008,-0.02,-0.0254,4.64,,
606,0.0016,-0.02,-0.0254,4.72,,
607,0.0016,-0.02,-0.0254,4.72,,
608,0.0008,0,-0.0254,4.72,,
609,0.0008,0,-0.0254,4.72,,
610,0.0016,0,-0.0254,4.72,,
611,0.0016,0,-0.0254,4.72,,
612,0.0008,0,-0.0254,4.64,,
613,0.0008,0,-0.0254,4.64,,
614,0.0016,-0.02,-0.0254,4.72,,
615,0.0016,-0.02,-0.0254,4.72,,
616,0.0008,-0.02,-0.0254,4.72,,
617,0.0008,-0.02,-0.0254,4.72,,
618,0.0008,0,-0.0254,4.64,,
619,0.0008,0,-0.0254,4.64,,
620,0.0008,-0.02,-0.0254,4.64,,
621,0.0008,-0.02,-0.0254,4.64,,
622,0.0008,-0.02,-0.0254,4.72,,
623,0.0008,-0.02,-0.0254,4.72,,
624,0.0008,0,-0.0254,4.64,,
625,0.0008,0,-0.0254,4.64,,
626,0,0,-0.0254,4.64,,
627,0,0,-0.0254,4.64,,
628,0.0008,0,-0.0254,4.64,,
629,0.0008,0,-0.0254,4.64,,
630,0.0008,0,-0.0254,4.64,,
631,0.0008,0,-0.0254,4.64,,
632,0.0008,-0.02,-0.0254,4.64,,
633,0.0008,-0.02,-0.0254,4.64,,
634,0.0008,-0.02,-0.0254,4.64,,
635,0.0008,-0.02,-0.0254,4.64,,
636,0.0016,-0.02,-0.0254,4.64,,
637,0.0016,-0.02,-0.0254,4.64,,
638,0,-0.02,-0.0254,4.64,,
639,0,-0.02,-0.0254,4.64,,
640,0,-0.02,-0.0254,4.64,,
641,0,-0.02,-0.0254,4.64,,
642,0.0008,0,-0.0254,4.64,,
643,0.0008,0,-0.0254,4.64,,
644,0.0008,-0.02,-0.0254,4.64,,
645,0.0008,-0.02,-0.0254,4.64,,
646,0.0016,0,-0.0254,4.64,,
647,0.0016,0,-0.0254,4.64,,
648,0.0008,0,-0.0254,4.64,,
649,0.0008,0,-0.0254,4.64,,
650,0.0008,0,-0.0254,4.64,,
651,0.0008,0,-0.0254,4.64,,
652,0.0008,-0.02,-0.0254,4.64,,
653,0.0008,-0.02,-0.0254,4.64,,
654,0.0008,0,-0.0254,4.64,,
655,0.0008,0,-0.0254,4.64,,
656,0.0008,0,-0.0254,4.64,,
657,0.0008,0,-0.0254,4.64,,
658,0.0008,-0.02,-0.0254,4.64,,
659,0.0008,-0.02,-0.0254,4.64,,
660,0,-0.02,-0.0254,4.64,,
661,0,-0.02,-0.0254,4.64,,
662,0,-0.02,-0.0254,4.72,,
663,0,-0.02,-0.0254,4.72,,
664,0.0008,-0.02,-0.0254,4.64,,
665,0.0008,-0.02,-0.0254,4.64,,
666,0.0008,0,-0.0254,4.64,,
667,0.0008,0,-0.0254,4.64,,
668,0,-0.02,-0.0254,4.64,,
669,0,-0.02,-0.0254,4.64,,
670,0.0016,-0.02,-0.0254,4.64,,
671,0.0016,-0.02,-0.0254,4.64,,
672,0.0008,-0.02,-0.0254,4.64,,
673,0.0008,-0.02,-0.0254,4.64,,
674,0,-0.02,-0.0254,4.64,,
675,0,-0.02,-0.0254,4.64,,
676,0.0008,0,-0.0254,4.64,,
677,0.0008,0,-0.0254,4.64,,
678,0.0016,0,-0.0254,4.64,,
679,0.0016,0,-0.0254,4.64,,
680,0.0008,0,-0.0254,4.64,,
681,0.0008,0,-0.0254,4.64,,
682,0.0008,-0.02,-0.0254,4.64,,
683,0.0008,-0.02,-0.0254,4.64,,
684,0.0008,0,-0.0254,4.72,,
685,0.0008,0,-0.0254,4.72,,
686,0.0008,0,-0.0254,4.72,,
687,0.0008,0,-0.0254,4.72,,
688,0.0008,0,-0.0254,4.72,,
689,0.0008,0,-0.0254,4.72,,
690,0.0008,0,-0.0254,4.72,,
691,0.0008,0,-0.0254,4.72,,
692,0,0,-0.0254,4.64,,
693,0,0,-0.0254,4.64,,
694,0.0008,-0.02,-0.0254,4.72,,
695,0.0008,-0.02,-0.0254,4.72,,
696,0.0008,0,-0.0254,4.72,,
697,0.0008,0,-0.0254,4.72,,
698,0.0016,-0.02,-0.0254,4.72,,
699,0.0016,-0.02,-0.0254,4.72,,
700,0.0008,-0.02,-0.0254,4.72,,
701,0.0008,-0.02,-0.0254,4.72,,
702,0.0008,0.72,-0.0254,4.64,,
703,0.0008,0.72,-0.0254,4.64,,
704,0,0.72,-0.0254,4.64,,
705,0,0.72,-0.0254,4.64,,
706,0,0.74,-0.0254,4.64,,
707,0,0.74,-0.0254,4.64,,
708,0.0008,0.72,-0.0254,4.64,,
709,0.0008,0.72,-0.0254,4.64,,
710,0,0.72,-0.0254,4.64,,
711,0,0.72,-0.0254,4.64,,
712,0,0.72,-0.0254,4.64,,
713,0,0.72,-0.0254,4.64,,
714,0,0.72,-0.0254,4.64,,
715,0,0.72,-0.0254,4.64,,
716,0.0008,0.72,-0.0254,4.64,,
717,0.0008,0.72,-0.0254,4.64,,
718,0,0.74,-0.0254,4.72,,
719,0,0.74,-0.0254,4.72,,
720,0,0.74,-0.0254,4.64,,
721,0,0.74,-0.0254,4.64,,
722,0,0.74,-0.0254,4.64,,
723,0,0.74,-0.0254,4.64,,
724,0,0.72,-0.0254,4.64,,
725,0,0.72,-0.0254,4.64,,
726,-0.0008,0.72,-0.0254,4.56,,
727,-0.0008,0.72,-0.0254,4.56,,
728,-0.0048,0.72,-0.0254,4.48,,
729,-0.0048,0.72,-0.0254,4.48,,
730,-0.012,0.74,-0.0254,4.32,,
